{
    "2018": [{
            "abstract": "When Bowler, a professor at Duke Divinity School, is diagnosed with stage IV colon cancer, she sets out to understand why it happened. Is it a test of her character? The result is a heartbreaking, surprisingly funny memoir about faith and coming to grips with your own mortality.",
            "author": "Kate Bowler",
            "image": "https://media.gatesnotes.com/-/media/Images/Books/Everything-Happens-for-a-Reason/summer-books_2018_happens-for-a-reason_1200px_v1.ashx",
            "title": "Everything Happens for a Reason and Other Lies I\u2019ve Loved",
            "year": "2018"
        }, {
            "abstract": "I think Leonardo was one of the most fascinating people ever. Although today he\u2019s best known as a painter, Leonardo had an absurdly wide range of interests, from human anatomy to the theater. Isaacson does the best job I\u2019ve seen of pulling together the different strands of Leonardo\u2019s life and explaining what made him so exceptional. A worthy follow-up to Isaacson\u2019s great biographies of Albert Einstein and Steve Jobs.",
            "author": "Walter Isaacson ",
            "image": "https://media.gatesnotes.com/-/media/Images/Books/Leonardo-da-Vinci/summer-books_2018_da-vinci_1200px_v1.ashx",
            "title": "Leonardo da Vinci",
            "year": "2018"
        },
        {
            "abstract": "David created my favorite course of all time, Big History. It tells the story of the universe from the big bang to today\u2019s complex societies, weaving together insights and evidence from various disciplines into a single narrative. If you haven\u2019t taken Big History yet, Origin Story is a great introduction. If you have, it\u2019s a great refresher. Either way, the book will leave you with a greater appreciation of humanity\u2019s place in the universe.",
            "author": "David Christian",
            "image": "https://media.gatesnotes.com/-/media/Images/Books/Origin-Story/summer-books_2018_origin-story_1200px_v1.ashx",
            "title": "Origin Story: A Big History of Everything",
            "year": "2018"
        },
        {
            "abstract": "I\u2019ve been recommending this book since the day it came out. Hans, the brilliant global-health lecturer who died last year, gives you a breakthrough way of understanding basic truths about the world\u2014how life is getting better, and where the world still needs to improve. And he weaves in unforgettable anecdotes from his life. It\u2019s a fitting final word from a brilliant man, and one of the best books I\u2019ve ever read.",
            "author": "Hans Rosling, with Ola Rosling and Anna Rosling Ronnlund",
            "image": "https://media.gatesnotes.com/-/media/Images/Books/Factfulness/factfulness_2018_article-hero_1200px_v2.ashx",
            "title": "Factfulness",
            "year": "2018"
        },
        {
            "abstract": "I thought I knew everything I needed to know about Abraham Lincoln, but this novel made me rethink parts of his life. It blends historical facts from the Civil War with fantastical elements\u2014it\u2019s basically a long conversation among 166 ghosts, including Lincoln\u2019s deceased son. I got new insight into the way Lincoln must have been crushed by the weight of both grief and responsibility. This is one of those fascinating, ambiguous books you\u2019ll want to discuss with a friend when you\u2019re done.",
            "author": "George Saunders",
            "image": "https://media.gatesnotes.com/-/media/Images/Books/Lincoln-in-the-Bardo/summer-books_2018_lincoln_1200px_v1.ashx",
            "title": "Lincoln in the Bardo",
            "year": "2018"
        }
    ]
}